%YAML 1.1
%TAG !u! tag:unity3d.com,2011:
--- !u!74 &7400000
AnimationClip:
  m_ObjectHideFlags: 0
  m_CorrespondingSourceObject: {fileID: 0}
  m_PrefabInstance: {fileID: 0}
  m_PrefabAsset: {fileID: 0}
  m_Name: karReload
  serializedVersion: 6
  m_Legacy: 0
  m_Compressed: 0
  m_UseHighQualityCurve: 1
  m_RotationCurves: []
  m_CompressedRotationCurves: []
  m_EulerCurves:
  - curve:
      serializedVersion: 2
      m_Curve:
      - serializedVersion: 3
        time: 0
        value: {x: 0, y: 0, z: 0}
        inSlope: {x: 0, y: 0, z: 0}
        outSlope: {x: 0, y: 0, z: 0}
        tangentMode: 0
        weightedMode: 0
        inWeight: {x: 0.33333334, y: 0.33333334, z: 0.33333334}
        outWeight: {x: 0.33333334, y: 0.33333334, z: 0.33333334}
      - serializedVersion: 3
        time: 0.41666666
        value: {x: 0, y: 0, z: 13}
        inSlope: {x: 0, y: 0, z: 0}
        outSlope: {x: 0, y: 0, z: 0}
        tangentMode: 0
        weightedMode: 0
        inWeight: {x: 0.33333334, y: 0.33333334, z: 0.33333334}
        outWeight: {x: 0.33333334, y: 0.33333334, z: 0.33333334}
      - serializedVersion: 3
        time: 1.4166666
        value: {x: 0, y: 0, z: 13}
        inSlope: {x: 0, y: 0, z: 0}
        outSlope: {x: 0, y: 0, z: 0}
        tangentMode: 0
        weightedMode: 0
        inWeight: {x: 0.33333334, y: 0.33333334, z: 0.33333334}
        outWeight: {x: 0.33333334, y: 0.33333334, z: 0.33333334}
      - serializedVersion: 3
        time: 1.75
        value: {x: 0, y: 0, z: 0}
        inSlope: {x: 0, y: 0, z: 0}
        outSlope: {x: 0, y: 0, z: 0}
        tangentMode: 0
        weightedMode: 0
        inWeight: {x: 0.33333334, y: 0.33333334, z: 0.33333334}
        outWeight: {x: 0.33333334, y: 0.33333334, z: 0.33333334}
      m_PreInfinity: 2
      m_PostInfinity: 2
      m_RotationOrder: 4
    path: 
  m_PositionCurves: []
  m_ScaleCurves: []
  m_FloatCurves: []
  m_PPtrCurves:
  - curve:
    - time: 0.16666667
      value: {fileID: 954377588520673193, guid: 9aa3af580f28c7b46bfb2d526e443ea6,
        type: 3}
    - time: 0.25
      value: {fileID: -146257070371481572, guid: 9aa3af580f28c7b46bfb2d526e443ea6,
        type: 3}
    - time: 0.33333334
      value: {fileID: 7388046062190321155, guid: 9aa3af580f28c7b46bfb2d526e443ea6,
        type: 3}
    - time: 0.41666666
      value: {fileID: -6971806629000050349, guid: 9aa3af580f28c7b46bfb2d526e443ea6,
        type: 3}
    - time: 0.5
      value: {fileID: 1891477214347545713, guid: 9aa3af580f28c7b46bfb2d526e443ea6,
        type: 3}
    - time: 0.5833333
      value: {fileID: 3631001337029953772, guid: 9aa3af580f28c7b46bfb2d526e443ea6,
        type: 3}
    - time: 0.75
      value: {fileID: -31138309703041996, guid: 9aa3af580f28c7b46bfb2d526e443ea6,
        type: 3}
    - time: 0.8333333
      value: {fileID: 4088426535652879296, guid: 9aa3af580f28c7b46bfb2d526e443ea6,
        type: 3}
    - time: 0.9166667
      value: {fileID: 5616887812957717208, guid: 9aa3af580f28c7b46bfb2d526e443ea6,
        type: 3}
    - time: 1
      value: {fileID: -4952485964565952204, guid: 9aa3af580f28c7b46bfb2d526e443ea6,
        type: 3}
    - time: 1.0833334
      value: {fileID: -4591656749660825396, guid: 9aa3af580f28c7b46bfb2d526e443ea6,
        type: 3}
    - time: 1.1666666
      value: {fileID: -7316363085019203839, guid: 9aa3af580f28c7b46bfb2d526e443ea6,
        type: 3}
    - time: 1.25
      value: {fileID: -1180462687645123126, guid: 9aa3af580f28c7b46bfb2d526e443ea6,
        type: 3}
    - time: 1.3333334
      value: {fileID: -4244837338866941198, guid: 9aa3af580f28c7b46bfb2d526e443ea6,
        type: 3}
    - time: 1.4166666
      value: {fileID: 954377588520673193, guid: 9aa3af580f28c7b46bfb2d526e443ea6,
        type: 3}
    attribute: m_Sprite
    path: 
    classID: 212
    script: {fileID: 0}
  m_SampleRate: 12
  m_WrapMode: 0
  m_Bounds:
    m_Center: {x: 0, y: 0, z: 0}
    m_Extent: {x: 0, y: 0, z: 0}
  m_ClipBindingConstant:
    genericBindings:
    - serializedVersion: 2
      path: 0
      attribute: 4
      script: {fileID: 0}
      typeID: 4
      customType: 4
      isPPtrCurve: 0
    - serializedVersion: 2
      path: 0
      attribute: 0
      script: {fileID: 0}
      typeID: 212
      customType: 23
      isPPtrCurve: 1
    pptrCurveMapping:
    - {fileID: 954377588520673193, guid: 9aa3af580f28c7b46bfb2d526e443ea6, type: 3}
    - {fileID: -146257070371481572, guid: 9aa3af580f28c7b46bfb2d526e443ea6, type: 3}
    - {fileID: 7388046062190321155, guid: 9aa3af580f28c7b46bfb2d526e443ea6, type: 3}
    - {fileID: -6971806629000050349, guid: 9aa3af580f28c7b46bfb2d526e443ea6, type: 3}
    - {fileID: 1891477214347545713, guid: 9aa3af580f28c7b46bfb2d526e443ea6, type: 3}
    - {fileID: 3631001337029953772, guid: 9aa3af580f28c7b46bfb2d526e443ea6, type: 3}
    - {fileID: -31138309703041996, guid: 9aa3af580f28c7b46bfb2d526e443ea6, type: 3}
    - {fileID: 4088426535652879296, guid: 9aa3af580f28c7b46bfb2d526e443ea6, type: 3}
    - {fileID: 5616887812957717208, guid: 9aa3af580f28c7b46bfb2d526e443ea6, type: 3}
    - {fileID: -4952485964565952204, guid: 9aa3af580f28c7b46bfb2d526e443ea6, type: 3}
    - {fileID: -4591656749660825396, guid: 9aa3af580f28c7b46bfb2d526e443ea6, type: 3}
    - {fileID: -7316363085019203839, guid: 9aa3af580f28c7b46bfb2d526e443ea6, type: 3}
    - {fileID: -1180462687645123126, guid: 9aa3af580f28c7b46bfb2d526e443ea6, type: 3}
    - {fileID: -4244837338866941198, guid: 9aa3af580f28c7b46bfb2d526e443ea6, type: 3}
    - {fileID: 954377588520673193, guid: 9aa3af580f28c7b46bfb2d526e443ea6, type: 3}
  m_AnimationClipSettings:
    serializedVersion: 2
    m_AdditiveReferencePoseClip: {fileID: 0}
    m_AdditiveReferencePoseTime: 0
    m_StartTime: 0
    m_StopTime: 1.75
    m_OrientationOffsetY: 0
    m_Level: 0
    m_CycleOffset: 0
    m_HasAdditiveReferencePose: 0
    m_LoopTime: 0
    m_LoopBlend: 0
    m_LoopBlendOrientation: 0
    m_LoopBlendPositionY: 0
    m_LoopBlendPositionXZ: 0
    m_KeepOriginalOrientation: 0
    m_KeepOriginalPositionY: 1
    m_KeepOriginalPositionXZ: 0
    m_HeightFromFeet: 0
    m_Mirror: 0
  m_EditorCurves:
  - curve:
      serializedVersion: 2
      m_Curve:
      - serializedVersion: 3
        time: 0
        value: 0
        inSlope: 0
        outSlope: 0
        tangentMode: 136
        weightedMode: 0
        inWeight: 0.33333334
        outWeight: 0.33333334
      - serializedVersion: 3
        time: 0.41666666
        value: 0
        inSlope: 0
        outSlope: 0
        tangentMode: 136
        weightedMode: 0
        inWeight: 0.33333334
        outWeight: 0.33333334
      - serializedVersion: 3
        time: 1.4166666
        value: 0
        inSlope: 0
        outSlope: 0
        tangentMode: 136
        weightedMode: 0
        inWeight: 0.33333334
        outWeight: 0.33333334
      - serializedVersion: 3
        time: 1.75
        value: 0
        inSlope: 0
        outSlope: 0
        tangentMode: 136
        weightedMode: 0
        inWeight: 0.33333334
        outWeight: 0.33333334
      m_PreInfinity: 2
      m_PostInfinity: 2
      m_RotationOrder: 4
    attribute: localEulerAnglesRaw.x
    path: 
    classID: 4
    script: {fileID: 0}
  - curve:
      serializedVersion: 2
      m_Curve:
      - serializedVersion: 3
        time: 0
        value: 0
        inSlope: 0
        outSlope: 0
        tangentMode: 136
        weightedMode: 0
        inWeight: 0.33333334
        outWeight: 0.33333334
      - serializedVersion: 3
        time: 0.41666666
        value: 0
        inSlope: 0
        outSlope: 0
        tangentMode: 136
        weightedMode: 0
        inWeight: 0.33333334
        outWeight: 0.33333334
      - serializedVersion: 3
        time: 1.4166666
        value: 0
        inSlope: 0
        outSlope: 0
        tangentMode: 136
        weightedMode: 0
        inWeight: 0.33333334
        outWeight: 0.33333334
      - serializedVersion: 3
        time: 1.75
        value: 0
        inSlope: 0
        outSlope: 0
        tangentMode: 136
        weightedMode: 0
        inWeight: 0.33333334
        outWeight: 0.33333334
      m_PreInfinity: 2
      m_PostInfinity: 2
      m_RotationOrder: 4
    attribute: localEulerAnglesRaw.y
    path: 
    classID: 4
    script: {fileID: 0}
  - curve:
      serializedVersion: 2
      m_Curve:
      - serializedVersion: 3
        time: 0
        value: 0
        inSlope: 0
        outSlope: 0
        tangentMode: 136
        weightedMode: 0
        inWeight: 0.33333334
        outWeight: 0.33333334
      - serializedVersion: 3
        time: 0.41666666
        value: 13
        inSlope: 0
        outSlope: 0
        tangentMode: 136
        weightedMode: 0
        inWeight: 0.33333334
        outWeight: 0.33333334
      - serializedVersion: 3
        time: 1.4166666
        value: 13
        inSlope: 0
        outSlope: 0
        tangentMode: 136
        weightedMode: 0
        inWeight: 0.33333334
        outWeight: 0.33333334
      - serializedVersion: 3
        time: 1.75
        value: 0
        inSlope: 0
        outSlope: 0
        tangentMode: 136
        weightedMode: 0
        inWeight: 0.33333334
        outWeight: 0.33333334
      m_PreInfinity: 2
      m_PostInfinity: 2
      m_RotationOrder: 4
    attribute: localEulerAnglesRaw.z
    path: 
    classID: 4
    script: {fileID: 0}
  m_EulerEditorCurves:
  - curve:
      serializedVersion: 2
      m_Curve: []
      m_PreInfinity: 2
      m_PostInfinity: 2
      m_RotationOrder: 4
    attribute: m_LocalEulerAngles.x
    path: 
    classID: 4
    script: {fileID: 0}
  - curve:
      serializedVersion: 2
      m_Curve: []
      m_PreInfinity: 2
      m_PostInfinity: 2
      m_RotationOrder: 4
    attribute: m_LocalEulerAngles.y
    path: 
    classID: 4
    script: {fileID: 0}
  - curve:
      serializedVersion: 2
      m_Curve: []
      m_PreInfinity: 2
      m_PostInfinity: 2
      m_RotationOrder: 4
    attribute: m_LocalEulerAngles.z
    path: 
    classID: 4
    script: {fileID: 0}
  m_HasGenericRootTransform: 1
  m_HasMotionFloatCurves: 0
  m_Events: []
